
ポジ表現ランキング,,,中立表現ランキング,,,ネガ表現ランキング
属性,評価表現,件数,属性,評価表現,件数,属性,評価表現,件数
ブログ,,2,ホンダ方式,,1,ホンダ,,3
,更新する,2,,違う,1,,負ける,2
,,,,,,,ない,1
壁紙,,1,,,,インサイト,,3
,ゲットできる,1,,,,,迷惑駐車する,1
,,,,,,,見ない,1
,,,,,,,ない,1
ホンダ,,1,,,,影,,1
,フィードバックさせる,1,,,,,薄い,1
CM,,1,,,,駄目,,1
,良い,1,,,,,見ちゃう,1
正直,,1,,,,画像ギャラリー,,1
,出せる,1,,,,,マイナーチェンジ|clicccarクリッカーhttp://t.co/f0W17BJL6Rインサイトモデルチェンジする,1
インサイト,,1,,,,米ホンダ,,1
,かっこいい,1,,,,,悩ます,1
デザイン,,1,,,,空気抵抗,,1
,凄い,1,,,,,減らす,1
ホンダ好き,,1,,,,不人気モデルhttp://t.co/kPR,,1
,乗る,1,,,,,悩ます,1
,もしかする,1,,,,,,
装備,,1,,,,補助ミラー付け奴,,1
,充実させる,1,,,,,出る,1
礎,,1,,,,ｗｗｗ,,1
,なる,1,,,,,ない,1
出来,,1,,,,対抗馬,,1
,注目される,1,,,,,なりうる,1
発売,,1,,,,2sNBpCdeZL,,1
,一部改良する,1,,,,,高い,1
人気投票,,1,,,,意外,,1
,ゲットできる,1,,,,,売れてない,1
燃費,,1,,,,フィット,,1
,実現する,1,,,,,売れてない,1
状態,,1,,,,好き,,1
,良い,1,,,,,ない,1
カッコ,,1,,,,価格据置,,1
,良い,1,,,,,マイナーチェンジ|clicccarクリッカーhttp://t.co/f0W17BJL6Rインサイトモデルチェンジする,1
完敗状態,,1,,,,,,
,注目される,1,,,,,,
空白,,1,,,,,,
,良い,1,,,,,,
5万?無事故,,1,,,,,,
,走る,1,,,,,,
スポーツハイブリッド,,1,,,,,,
,搭載する,1,,,,,,
外装,,1,,,,,,
,改良する,1,,,,,,
インサイトエクスクルーシブ,,1,,,,,,
,一部改良する,1,,,,,,
